{
  "firestore": {
    "rules": "firestore.rules",
    "indexes": "firestore.indexes.json"
  },
  "hosting": {
    "redirects": [
      {
        "source": "Login/",
        "destination": "/",
        "type": 301
      },
      {
        "source": "ProductList/",
        "destination": "/",
        "type": 302
      },
      {
        "source": "ProductAdd/",
        "destination": "/",
        "type": 303
      },
      {
        "source": "ProductRedact/**",
        "destination": "/",
        "type": 304
      }
    ],
    "public": "build",
    "ignore": ["firebase.json", "**/.*", "**/node_modules/**"]
  },
  "storage": {
    "rules": "storage.rules"
  }
}
